The Relationship Between Democracy and the Percentage of Women in National Legislatures
…
World Bank Data on Women in National Parliaments

# A tibble: 217 × 3
   Economy              Year Proportion of seats held by women in na…¹
   <chr>               <dbl> <chr>                                    
 1 Afghanistan          2021 27%                                      
 2 Albania              2024 35.70%                                   
 3 Algeria              2024 7.90%                                    
 4 American Samoa       2024 N/A                                      
 5 Andorra              2024 50%                                      
 6 Angola               2024 39.50%                                   
 7 Antigua and Barbuda  2024 5.60%                                    
 8 Argentina            2024 42.40%                                   
 9 Armenia              2024 36.40%                                   
10 Aruba                2024 N/A                                      
# ℹ 207 more rows
# ℹ abbreviated name:
#   ¹​`Proportion of seats held by women in national parliaments (%)`

Our World in Data on democracy levels

# A tibble: 3,077 × 5
   Entity      Code   Year `Democracy Index` World region according …¹
   <chr>       <chr> <dbl>             <dbl> <chr>                    
 1 Afghanistan AFG    2006              3.06 Asia                     
 2 Afghanistan AFG    2008              3.02 Asia                     
 3 Afghanistan AFG    2010              2.48 Asia                     
 4 Afghanistan AFG    2011              2.48 Asia                     
 5 Afghanistan AFG    2012              2.48 Asia                     
 6 Afghanistan AFG    2013              2.48 Asia                     
 7 Afghanistan AFG    2014              2.77 Asia                     
 8 Afghanistan AFG    2015              2.77 Asia                     
 9 Afghanistan AFG    2016              2.55 Asia                     
10 Afghanistan AFG    2017              2.55 Asia                     
# ℹ 3,067 more rows
# ℹ abbreviated name: ¹​`World region according to OWID`

Data set clean up

# A tibble: 217 × 6
   Country         Year Proportion of seats …¹ Code  `Democracy Index`
   <chr>          <dbl> <chr>                  <chr>             <dbl>
 1 Afghanistan     2021 27%                    AFG                0.32
 2 Albania         2024 35.70%                 ALB                6.2 
 3 Algeria         2024 7.90%                  DZA                3.55
 4 American Samoa  2024 N/A                    <NA>              NA   
 5 Andorra         2024 50%                    <NA>              NA   
 6 Angola          2024 39.50%                 AGO                4.05
 7 Antigua and B…  2024 5.60%                  <NA>              NA   
 8 Argentina       2024 42.40%                 ARG                6.51
 9 Armenia         2024 36.40%                 ARM                5.35
10 Aruba           2024 N/A                    <NA>              NA   
# ℹ 207 more rows
# ℹ abbreviated name:
#   ¹​`Proportion of seats held by women in national parliaments (%)`
# ℹ 1 more variable: `World region according to OWID` <chr>

# A tibble: 147 × 6
   Country      Year Proportion of seats hel…¹ Code  `Democracy Index`
   <chr>       <dbl> <chr>                     <chr>             <dbl>
 1 Afghanistan  2021 27%                       AFG                0.32
 2 Albania      2024 35.70%                    ALB                6.2 
 3 Algeria      2024 7.90%                     DZA                3.55
 4 Angola       2024 39.50%                    AGO                4.05
 5 Argentina    2024 42.40%                    ARG                6.51
 6 Armenia      2024 36.40%                    ARM                5.35
 7 Australia    2024 38%                       AUS                8.85
 8 Austria      2024 36.10%                    AUT                8.28
 9 Azerbaijan   2024 20.80%                    AZE                2.8 
10 Bahrain      2024 20%                       BHR                2.45
# ℹ 137 more rows
# ℹ abbreviated name:
#   ¹​`Proportion of seats held by women in national parliaments (%)`
# ℹ 1 more variable: `World region according to OWID` <chr>

# A tibble: 147 × 6
   Country      Year Prop_Seats Code  Democracy_Index
   <chr>       <dbl> <chr>      <chr>           <dbl>
 1 Afghanistan  2021 27%        AFG              0.32
 2 Albania      2024 35.70%     ALB              6.2 
 3 Algeria      2024 7.90%      DZA              3.55
 4 Angola       2024 39.50%     AGO              4.05
 5 Argentina    2024 42.40%     ARG              6.51
 6 Armenia      2024 36.40%     ARM              5.35
 7 Australia    2024 38%        AUS              8.85
 8 Austria      2024 36.10%     AUT              8.28
 9 Azerbaijan   2024 20.80%     AZE              2.8 
10 Bahrain      2024 20%        BHR              2.45
# ℹ 137 more rows
# ℹ 1 more variable: `World region according to OWID` <chr>

Table 1 (Sample of data set)

This data set merges Our World in Data study on democracy level (0-10) and World Bank data on women in national legislatures (%).

# A tibble: 139 × 6
   Country     Year Prop_Seats Code  Democracy_Index
   <chr>      <dbl>      <dbl> <chr>           <dbl>
 1 Albania     2024       35.7 ALB              6.2 
 2 Algeria     2024        7.9 DZA              3.55
 3 Angola      2024       39.5 AGO              4.05
 4 Argentina   2024       42.4 ARG              6.51
 5 Armenia     2024       36.4 ARM              5.35
 6 Australia   2024       38   AUS              8.85
 7 Austria     2024       36.1 AUT              8.28
 8 Azerbaijan  2024       20.8 AZE              2.8 
 9 Bahrain     2024       20   BHR              2.45
10 Belarus     2024       33.6 BLR              1.99
# ℹ 129 more rows
# ℹ 1 more variable: `World region according to OWID` <chr>
…
